…
    library(rpart)
    library(broomstick)

    fit_rpart <- rpart(Kyphosis ~ Age + Number + Start, 
                       data = kyphosis)

    tidy(fit_rpart)
    #> # A tibble: 3 x 2
    #>   variable importance
    #>   <chr>         <dbl>
    #> 1 Start          8.20
    #> 2 Age            3.10
    #> 3 Number         1.52
    augment(fit_rpart)
    #> # A tibble: 81 x 6
    #>    Kyphosis   Age Number Start .fitted[,"absen… [,"present"] .resid[,"absent…
    #>    <fct>    <int>  <int> <int>            <dbl>        <dbl>            <dbl>
    #>  1 absent      71      3     5            0.421        0.579           -0.579
    #>  2 absent     158      3    14            0.857        0.143           -0.143
    #>  3 present    128      4     5            0.421        0.579           -1.58 
    #>  4 absent       2      5     1            0.421        0.579           -0.579
    #>  5 absent       1      4    15            1            0                0    
    #>  6 absent       1      2    16            1            0                0    
    #>  7 absent      61      2    17            1            0                0    
    #>  8 absent      37      3    16            1            0                0    
    #>  9 absent     113      2    16            1            0                0    
    #> 10 present     59      6    12            0.429        0.571           -1.57 
    #> # … with 71 more rows, and 1 more variable: [,"present"] <dbl>
…
